Which RStudio blog posts “pleased” Hadley? A tidytext + web scraping analysis · Data Insights
…
blog_data <- blog_data %>%
  mutate(main = map(
                    # Iterate through every link
                    .x = links, 
                    
                    # For each link, read the HTML for that page, and return the main section 
                    .f = ~read_html(.) %>%
                            html_nodes("main")
                    )
         )

select(blog_data, main)

## # A tibble: 254 x 1
##                 main
##               <list>
##  1 <S3: xml_nodeset>
##  2 <S3: xml_nodeset>
##  3 <S3: xml_nodeset>
##  4 <S3: xml_nodeset>
##  5 <S3: xml_nodeset>
##  6 <S3: xml_nodeset>
##  7 <S3: xml_nodeset>
##  8 <S3: xml_nodeset>
##  9 <S3: xml_nodeset>
## 10 <S3: xml_nodeset>
## # ... with 244 more rows
…
# Extract the data
blog_data <- blog_data %>%
  mutate(
     author = extract_info(main, ".author"),
     title  = extract_info(main, ".title"),
     date   = extract_info(main, ".date")
    )

select(blog_data, author, date)

## # A tibble: 254 x 2
##                author       date
##                 <chr>      <chr>
##  1        Roger Oberg 2017-08-25
##  2        Kevin Ushey 2017-08-22
##  3        Roger Oberg 2017-08-18
##  4 Jonathan McPherson 2017-08-16
##  5        Roger Oberg 2017-08-16
##  6     Hadley Wickham 2017-08-15
##  7      Winston Chang 2017-08-15
##  8       Gary Ritchie 2017-08-11
##  9        Roger Oberg 2017-08-10
## 10         Jeff Allen 2017-08-03
## # ... with 244 more rows

select(blog_data, title)

## # A tibble: 254 x 1
##                                                                          title
##                                                                          <chr>
##  1 Newer to R? rstudio::conf 2018 is for you! Early bird pricing ends August 3
##  2                                      RStudio v1.1 Preview - Object Explorer
##  3       RStudio Server Pro is ready for BigQuery on the Google Cloud Platform
##  4                                      RStudio 1.1 Preview - Data Connections
##  5                                                        Master the tidyverse
##  6 rstudio::conf(2018): Contributed talks, e-posters, and diversity scholarshi
##  7                                                                 Shiny 1.0.4
##  8                                              RStudio v1.1 Preview: Terminal
##  9                                                Building tidy tools workshop
## 10                            RStudio Connect v1.5.4 - Now Supporting Plumber!
## # ... with 244 more rows
…
# Apply our new extraction function
blog_data <- blog_data %>%
  mutate(
    categories = extract_tag_or_cat(main, "categories"),
    tags       = extract_tag_or_cat(main, "tags")
  )

select(blog_data, categories, tags)

## # A tibble: 254 x 2
##    categories      tags
##        <list>    <list>
##  1  <chr [3]> <chr [1]>
##  2  <chr [1]> <chr [0]>
##  3  <chr [2]> <chr [4]>
##  4  <chr [1]> <chr [0]>
##  5  <chr [3]> <chr [8]>
##  6  <chr [1]> <chr [0]>
##  7  <chr [2]> <chr [0]>
##  8  <chr [1]> <chr [3]>
##  9  <chr [3]> <chr [8]>
## 10  <chr [3]> <chr [2]>
## # ... with 244 more rows
…
Finally, to extract the blog post itself, we can notice that each piece of text in the post is inside of a paragraph tag (p). Being careful to avoid the ".terms" class that contained the categories and tags, which also happens to be in a paragraph tag, we can extract the full blog posts. To ignore the ".terms" class, use the :not() selector.

blog_data <- blog_data %>%
  mutate(
    text = map_chr(main, ~html_nodes(.x, "p:not(.terms)") %>%
                 html_text() %>%
                 # The text is returned as a character vector. 
                 # Collapse them all into 1 string.
                 paste0(collapse = " "))
  )

select(blog_data, text)

## # A tibble: 254 x 1
##                                                                           text
##                                                                          <chr>
##  1 "Immersion is among the most effective ways to learn any language. Immersin
##  2 Today, we’re continuing our blog series on new features in RStudio 1.1. If 
##  3 RStudio is excited to announce the availability of RStudio Server Pro on th
##  4 Today, we’re continuing our blog series on new features in RStudio 1.1. If 
##  5 If you’ve read the book “R for Data Science” or plan to, now you can dive d
##  6 rstudio::conf, the conference on all things R and RStudio, will take place 
##  7 Shiny 1.0.4 is now available on CRAN. To install it, run: For most Shiny us
##  8 Today we’re excited to announce availability of our first Preview Release f
##  9 Have you embraced the tidyverse? Do you now want to expand it to meet your 
## 10 We’re thrilled to announce support for hosting Plumber APIs in RStudio Conn
## # ... with 244 more rows
…
Tidytext

I’ve never used tidytext before today, but to get our feet wet, let’s create a tokenized tidy version of our data. By using unnest_tokens() the data will be reshaped to a long format holding 1 word per row, for each blog post. This tidy format lends itself to all manner of analysis, and a number of them are outlined in Julia Silge and David Robinson’s Text Mining with R.

tokenized_blog <- blog_data %>%
  select(title, author, date, text) %>%
  unnest_tokens(output = word, input = text)

select(tokenized_blog, title, word)

## # A tibble: 86,046 x 2
##                                                                          title
##                                                                          <chr>
##  1 Newer to R? rstudio::conf 2018 is for you! Early bird pricing ends August 3
##  2 Newer to R? rstudio::conf 2018 is for you! Early bird pricing ends August 3
##  3 Newer to R? rstudio::conf 2018 is for you! Early bird pricing ends August 3
##  4 Newer to R? rstudio::conf 2018 is for you! Early bird pricing ends August 3
##  5 Newer to R? rstudio::conf 2018 is for you! Early bird pricing ends August 3
##  6 Newer to R? rstudio::conf 2018 is for you! Early bird pricing ends August 3
##  7 Newer to R? rstudio::conf 2018 is for you! Early bird pricing ends August 3
##  8 Newer to R? rstudio::conf 2018 is for you! Early bird pricing ends August 3
##  9 Newer to R? rstudio::conf 2018 is for you! Early bird pricing ends August 3
## 10 Newer to R? rstudio::conf 2018 is for you! Early bird pricing ends August 3
## # ... with 86,036 more rows, and 1 more variables: word <chr>

Remove stop words

A number of words like “a” or “the” are included in the blog that don’t really add value to a text analysis. These stop words can be removed using an anti_join() with the stop_words dataset that comes with tidytext. After removing stop words, the number of rows was cut in half!

tokenized_blog <- tokenized_blog %>%
  anti_join(stop_words, by = "word") %>%
  arrange(desc(date))

select(tokenized_blog, title, word)

## # A tibble: 40,465 x 2
##                                                                          title
##                                                                          <chr>
##  1 Newer to R? rstudio::conf 2018 is for you! Early bird pricing ends August 3
##  2 Newer to R? rstudio::conf 2018 is for you! Early bird pricing ends August 3
##  3 Newer to R? rstudio::conf 2018 is for you! Early bird pricing ends August 3
##  4 Newer to R? rstudio::conf 2018 is for you! Early bird pricing ends August 3
##  5 Newer to R? rstudio::conf 2018 is for you! Early bird pricing ends August 3
##  6 Newer to R? rstudio::conf 2018 is for you! Early bird pricing ends August 3
##  7 Newer to R? rstudio::conf 2018 is for you! Early bird pricing ends August 3
##  8 Newer to R? rstudio::conf 2018 is for you! Early bird pricing ends August 3
##  9 Newer to R? rstudio::conf 2018 is for you! Early bird pricing ends August 3
## 10 Newer to R? rstudio::conf 2018 is for you! Early bird pricing ends August 3
## # ... with 40,455 more rows, and 1 more variables: word <chr>
…
