Amazon RDS + R · Data Insights
…
# Collect to tibble
real_tibble <- collect(ibm_table) %>%
  readr::type_convert()

# Daily return
real_tibble <- real_tibble %>% 
  tq_mutate(select     = adjusted, 
            mutate_fun = periodReturn, 
            period     = "daily")

real_tibble

## # A tibble: 2,542 x 8
##    date        open  high   low close   volume adjusted daily.returns
##    <date>     <dbl> <dbl> <dbl> <dbl>    <dbl>    <dbl>         <dbl>
##  1 2007-01-03  97.2  98.4  96.3  97.3  9196800     78.4       0      
##  2 2007-01-04  97.2  98.8  96.9  98.3 10524500     79.2       0.0107 
##  3 2007-01-05  97.6  97.9  96.9  97.4  7221300     78.5      -0.00905
##  4 2007-01-08  98.5  99.5  98.3  98.9 10340000     79.7       0.0152 
##  5 2007-01-09  99.1 100.   99.1 100.  11108200     80.6       0.0118 
##  6 2007-01-10  98.5  99.1  97.9  98.9  8744800     79.7      -0.0118 
##  7 2007-01-11  99    99.9  98.5  98.7  8000700     79.5      -0.00243
##  8 2007-01-12  99.0  99.7  98.5  99.3  6636500     80.0       0.00699
##  9 2007-01-16  99.4 101.   99.3 101.   9602200     81.2       0.0149 
## 10 2007-01-17 101.  101.   99.9 100.   8200700     80.6      -0.00793
## # ... with 2,532 more rows
…
