Tidying Excel cash flow spreadsheets using R · Data Insights
…
Then you identify your row and column headers (main and sub headers).

Finally, you use that information to perform a series of “coordinate based” transformations that help tidy up your data (unpivotr performs most of the magic for us).

Tokenize your Excel sheet

unpivotr comes equipped with a function that can help turn our imported
spreadsheet into a tokenized version of itself, where each row of the
resulting tibble corresponds to a cell identified by a row and col number. tidy_table() is just that function.

untidy_tokens <- tidy_table(untidy)
untidy_tokens

## # A tibble: 1,161 x 4
##      row   col chr                    lgl  
##    <int> <int> <chr>                  <lgl>
##  1     1     1 <NA>                   NA   
##  2     2     1 Beginning Cash Balance NA   
##  3     3     1 Cash Inflows (Income): NA   
##  4     4     1 <NA>                   NA   
##  5     5     1 <NA>                   NA   
##  6     6     1 <NA>                   NA   
##  7     7     1 <NA>                   NA   
##  8     8     1 <NA>                   NA   
##  9     9     1 <NA>                   NA   
## 10    10     1 <NA>                   NA   
## # ... with 1,151 more rows
…
We don’t care about the lgl column, and at this point we also remove any cells
that contain NA values. This solves problem 3.

tokens <- untidy_tokens %>%
  select(-lgl) %>%
  filter(!is.na(chr))

tokens

## # A tibble: 506 x 3
##      row   col chr                      
##    <int> <int> <chr>                    
##  1     2     1 Beginning Cash Balance   
##  2     3     1 Cash Inflows (Income):   
##  3    11     1 Available Cash Balance   
##  4    12     1 Cash Outflows (Expenses):
##  5    35     1 Other Cash Out Flows:    
##  6    43     1 Ending Cash Balance      
##  7     4     2 Cash Collections         
##  8     5     2 Credit Collections       
##  9     6     2 Investment Income        
## 10     7     2 Other:                   
## # ... with 496 more rows
…
# Only the three summary rows
# Also include row 1 so we keep the row headers (months)
tokens_summary <- tokens %>%
  filter(row %in% c(1, main_header_rows))

# Everything else
tokens_main <- tokens %>%
  filter(!(row %in% main_header_rows))

tokens_main

## # A tibble: 467 x 3
##      row   col chr                      
##    <int> <int> <chr>                    
##  1     3     1 Cash Inflows (Income):   
##  2    12     1 Cash Outflows (Expenses):
##  3    35     1 Other Cash Out Flows:    
##  4     4     2 Cash Collections         
##  5     5     2 Credit Collections       
##  6     6     2 Investment Income        
##  7     7     2 Other:                   
##  8    10     2 Total Cash Inflows       
##  9    13     2 Advertising              
## 10    14     2 Bank Service Charges     
## # ... with 457 more rows
…
  # Name the elements of the list for easy access
  set_names(c("main_headers", "sub_headers"))

row_headers

## $main_headers
## # A tibble: 3 x 3
##     row   col header                   
##   <int> <int> <chr>                    
## 1     3     1 Cash Inflows (Income):   
## 2    12     1 Cash Outflows (Expenses):
## 3    35     1 Other Cash Out Flows:    
## 
## $sub_headers
## # A tibble: 32 x 3
##      row   col header              
##    <int> <int> <chr>               
##  1     4     2 Cash Collections    
##  2     5     2 Credit Collections  
##  3     6     2 Investment Income   
##  4     7     2 Other:              
##  5    10     2 Total Cash Inflows  
##  6    13     2 Advertising         
##  7    14     2 Bank Service Charges
##  8    15     2 Insurance           
##  9    16     2 Interest            
## 10    17     2 Inventory Purchases 
## # ... with 22 more rows
…
row_headers_summary <- tokens_summary %>%
  filter(col == 1) %>%
  rename(header = chr)

col_headers_summary <- col_headers

tokens_summary_tidy <- tokens_summary %>%
  W(row_headers_summary) %>%
  N(col_headers_summary) %>%
  rename(main_header = header.data, month = header.header)

tokens_summary_tidy

## # A tibble: 36 x 5
##      row   col chr    main_header            month
##    <int> <int> <chr>  <chr>                  <chr>
##  1     2     3 0      Beginning Cash Balance April
##  2    11     3 -4407  Available Cash Balance April
##  3    43     3 -39895 Ending Cash Balance    April
##  4     2     5 -39895 Beginning Cash Balance May  
##  5    11     5 -34824 Available Cash Balance May  
##  6    43     5 -43080 Ending Cash Balance    May  
##  7     2     7 -43080 Beginning Cash Balance June 
##  8    11     7 -40529 Available Cash Balance June 
##  9    43     7 -39830 Ending Cash Balance    June 
## 10     2     9 -39830 Beginning Cash Balance July 
## # ... with 26 more rows
…
# We need to manipulate the data a little more to get it ready for plotting
tokens_plot_ready <- tokens_main_tidy %>%
  
  # Remove any total rows
  filter(month != "TOTALS") %>%
  
  # To use the month column as our x-axis, we need it to be an ordered factor
  # Additionally, the chr column need to be converted over to numeric
  mutate(month = factor(month, levels = ordered_months, ordered = TRUE),
         chr   = as.numeric(chr))

tokens_plot_ready

## # A tibble: 384 x 6
##      row   col   chr main_header               month sub_header          
##    <int> <int> <dbl> <chr>                     <ord> <chr>               
##  1     4     3  2227 Cash Inflows (Income):    April Cash Collections    
##  2     5     3 -4712 Cash Inflows (Income):    April Credit Collections  
##  3     6     3 -2412 Cash Inflows (Income):    April Investment Income   
##  4     7     3   490 Cash Inflows (Income):    April Other:              
##  5    10     3 -4407 Cash Inflows (Income):    April Total Cash Inflows  
##  6    13     3  -324 Cash Outflows (Expenses): April Advertising         
##  7    14     3  3221 Cash Outflows (Expenses): April Bank Service Charges
##  8    15     3   960 Cash Outflows (Expenses): April Insurance           
##  9    16     3   936 Cash Outflows (Expenses): April Interest            
## 10    17     3  2522 Cash Outflows (Expenses): April Inventory Purchases 
## # ... with 374 more rows
…
